Get information on available scenarios — toolGetScenarioDefinition • mrdrivers
…
aslist
TRUE or FALSE (default). If TRUE then the pastData, futureData and harmonization strings are returned
as a list.

    Value

    A tibble with the driver and scenario information.

    Examples

toolGetScenarioDefinition()
#> # A tibble: 31 × 5
#>    driver scenario      pastData     futureData       harmonization     
#>    <chr>  <chr>         <chr>        <chr>            <chr>             
#>  1 GDPpc  SSPs          WDI-MI-James SSPs             GDPpcSSPs         
#>  2 GDPpc  SSP2          WDI-MI-James SSP2             GDPpcSSPs         
#>  3 GDPpc  SSP2EU        WDI-MI-James SSP2EU           GDPpcSSPs         
#>  4 GDPpc  SDPs          -            -                GDPpcSDPs         
#>  5 GDPpc  ISIMIP        WDI-MI-James SSPs             GDPpcSSPs         
#>  6 GDPpc  SSP2IndiaDEAs WDI-MI-James IndiaDEAs-SSP2   GDPpcSSP2IndiaDEAs
#>  7 GDPpc  SSP2IndiaHigh WDI-MI-James IndiaDEAopt-SSP2 GDPpcSSP2IndiaDEAs
#>  8 GDP    SSPs          -            -                GDPpcWithPop      
#>  9 GDP    SSP2          -            -                GDPpcWithPop      
#> 10 GDP    SSP2EU        -            -                GDPpcWithPop      
#> # ℹ 21 more rows
…
